{
  "bomFormat": "CycloneDX",
  "specVersion": "1.4",
  "serialNumber": "urn:uuid:36d7c546-8778-425f-89e7-67121b3060ef",
  "version": 1,
  "metadata": {
    "timestamp": "2023-08-10T17:05:35Z",
    "tools": [
      {
        "vendor": "GitLab",
        "name": "Gemnasium",
        "version": "4.2.1"
      }
    ],
    "authors": [
      {
        "name": "GitLab",
        "email": "support@gitlab.com"
      }
    ],
    "properties": [
      {
        "name": "gitlab:dependency_scanning:input_file",
        "value": "conan.lock"
      },
      {
        "name": "gitlab:dependency_scanning:input_file:path",
        "value": "conan.lock"
      },
      {
        "name": "gitlab:dependency_scanning:package_manager",
        "value": "conan"
      },
      {
        "name": "gitlab:dependency_scanning:package_manager:name",
        "value": "conan"
      },
      {
        "name": "gitlab:meta:schema_version",
        "value": "1"
      }
    ]
  },
  "components": [
    {
      "name": "boost",
      "version": "1.83.0",
      "purl": "pkg:conan/boost@1.83.0",
      "type": "library",
      "bom-ref": "pkg:conan/boost@1.83.0"
    },
    {
      "name": "bzip2",
      "version": "1.0.8",
      "purl": "pkg:conan/bzip2@1.0.8",
      "type": "library",
      "bom-ref": "pkg:conan/bzip2@1.0.8"
    },
    {
      "name": "jerryscript",
      "version": "2.2.0",
      "purl": "pkg:conan/jerryscript@2.2.0",
      "type": "library",
      "bom-ref": "pkg:conan/jerryscript@2.2.0"
    },
    {
      "name": "libbacktrace",
      "version": "cci.20210118",
      "purl": "pkg:conan/libbacktrace@cci.20210118",
      "type": "library",
      "bom-ref": "pkg:conan/libbacktrace@cci.20210118"
    },
    {
      "name": "numcpp",
      "version": "2.11.0",
      "purl": "pkg:conan/numcpp@2.11.0",
      "type": "library",
      "bom-ref": "pkg:conan/numcpp@2.11.0"
    },
    {
      "name": "wolfssl",
      "version": "4.4.0",
      "purl": "pkg:conan/wolfssl@4.4.0",
      "type": "library",
      "bom-ref": "pkg:conan/wolfssl@4.4.0"
    },
    {
      "name": "zlib",
      "version": "1.3",
      "purl": "pkg:conan/zlib@1.3",
      "type": "library",
      "bom-ref": "pkg:conan/zlib@1.3"
    },
    {
      "name": "zstd",
      "version": "1.4.4",
      "purl": "pkg:conan/zstd@1.4.4",
      "type": "library",
      "bom-ref": "pkg:conan/zstd@1.4.4"
    }
  ]
}
