[
  {
    "range": "<3.0.1",
    "version": "4.5.1"
  },
  {
    "range": ">=0.0.0-alpha",
    "version": "4.5.1"
  },
  {
    "range": "<3.0.0",
    "version": "4.5.1"
  },
  {
    "range": "<5.1.3",
    "version": "4.5.1"
  },
  {
    "range": "<1.0.4",
    "version": "4.5.1"
  },
  {
    "range": ">=0.44.0 <=0.49.3",
    "version": "4.5.1"
  },
  {
    "range": "<1.1.2",
    "version": "4.5.1"
  },
  {
    "range": ">=0.0.0",
    "version": "4.5.1"
  },
  {
    "range": ">= 0.0.10 <= 0.0.14",
    "version": "4.5.1"
  },
  {
    "range": "<0.1.1",
    "version": "4.5.1"
  },
  {
    "range": "<4.17.5",
    "version": "4.5.1"
  },
  {
    "range": "<=0.0.1",
    "version": "4.5.1"
  },
  {
    "range": ">=0.0.0-a",
    "version": "4.5.1"
  },
  {
    "range": "<2.3.1",
    "version": "4.5.1"
  },
  {
    "range": "<1.4.0",
    "version": "4.5.1"
  },
  {
    "range": "<0.0.18",
    "version": "4.5.1"
  },
  {
    "range": "<3.9.0",
    "version": "4.5.1"
  },
  {
    "range": ">=3.0.0 <3.10.0||=3.10.2",
    "version": "4.5.1"
  },
  {
    "range": "<0.3.2",
    "version": "4.5.1"
  },
  {
    "range": "<=3.0.0",
    "version": "4.5.1"
  },
  {
    "range": "<0.9.3",
    "version": "4.5.1"
  },
  {
    "range": "<0.0.3",
    "version": "4.5.1"
  },
  {
    "range": "<=5.2.1",
    "version": "4.5.1"
  },
  {
    "range": "<1.0.29",
    "version": "4.5.1"
  },
  {
    "range": "<=2.6.3",
    "version": "4.5.1"
  },
  {
    "range": "<1.3.1",
    "version": "4.5.1"
  },
  {
    "range": "<2.1.12",
    "version": "4.5.1"
  },
  {
    "range": "<=0.0.10",
    "version": "4.5.1"
  },
  {
    "range": "<=0.8.1",
    "version": "4.5.1"
  },
  {
    "range": "<=1.0.1",
    "version": "4.5.1"
  },
  {
    "range": "0.5.1",
    "version": "4.5.1"
  },
  {
    "range": "<=0.7.0",
    "version": "4.5.1"
  },
  {
    "range": "<=0.5.2",
    "version": "4.5.1"
  },
  {
    "range": "<0.8.0",
    "version": "4.5.1"
  },
  {
    "range": "<=6.4.0",
    "version": "4.5.1"
  },
  {
    "range": "<1.1.5",
    "version": "4.5.1"
  },
  {
    "range": "<1.3.0",
    "version": "4.5.1"
  },
  {
    "range": "<3.22.1",
    "version": "4.5.1"
  },
  {
    "range": "<2.0.0",
    "version": "4.5.1"
  },
  {
    "range": "<0.1.3",
    "version": "4.5.1"
  },
  {
    "range": "< 1.1.1",
    "version": "4.5.1"
  },
  {
    "range": "<=0.8.4",
    "version": "4.5.1"
  },
  {
    "range": "<=1.3.3",
    "version": "4.5.1"
  },
  {
    "range": ">=1.0.0",
    "version": "4.5.1"
  },
  {
    "range": "<1.0.2",
    "version": "4.5.1"
  },
  {
    "range": "<2.19.3",
    "version": "4.5.1"
  },
  {
    "range": "<9.0.0",
    "version": "4.5.1"
  },
  {
    "range": "<0.1.6",
    "version": "4.5.1"
  },
  {
    "range": "<1.8.8",
    "version": "4.5.1"
  },
  {
    "range": "<3.11.0 || >=4.0.0-rc1 <4.5.0",
    "version": "4.5.1"
  },
  {
    "range": "<11.1.3",
    "version": "4.5.1"
  },
  {
    "range": "<11.1.4",
    "version": "4.5.1"
  },
  {
    "range": "<11.0.0",
    "version": "4.5.1"
  },
  {
    "range": ">=8.0.0-rc4 <13.4.2",
    "version": "4.5.1"
  },
  {
    "range": "2.0.x || 2.1.x",
    "version": "4.5.1"
  },
  {
    "range": "< 6.1.0",
    "version": "4.5.1"
  },
  {
    "range": ">=15.0.0 <16.1.1",
    "version": "4.5.1"
  },
  {
    "range": "<=0.9.73",
    "version": "4.5.1"
  },
  {
    "range": "< 2.3.3",
    "version": "4.5.1"
  },
  {
    "range": ">=0.2.20",
    "version": "4.5.1"
  },
  {
    "range": "<=1.1.3",
    "version": "4.5.1"
  },
  {
    "range": "<0.2.3",
    "version": "4.5.1"
  },
  {
    "range": "<=0.30.0 || <=0.21.0-pre.1",
    "version": "4.5.1"
  },
  {
    "range": "<0.6.1",
    "version": "4.5.1"
  },
  {
    "range": "<=0.3.3",
    "version": "4.5.1"
  },
  {
    "range": "<1.1.4",
    "version": "4.5.1"
  },
  {
    "range": "<5.0.2",
    "version": "4.5.1"
  },
  {
    "range": "<1.10.10",
    "version": "4.5.1"
  },
  {
    "range": "2.1.0-M1 || 2.1.0-M2",
    "version": "4.5.1"
  },
  {
    "range": "<2.1.5-M1 >=2.1.4-M1",
    "version": "4.5.1"
  },
  {
    "range": "<2.1.5 >=2.1.2-M2",
    "version": "4.5.1"
  },
  {
    "range": "<2.2.1",
    "version": "4.5.1"
  },
  {
    "range": "<=0.3.0",
    "version": "4.5.1"
  },
  {
    "range": "<=0.3.2",
    "version": "4.5.1"
  },
  {
    "range": "<0.3.9",
    "version": "4.5.1"
  },
  {
    "range": "<0.3.4",
    "version": "4.5.1"
  },
  {
    "range": "<0.3.6",
    "version": "4.5.1"
  },
  {
    "range": "<= 1.6.8",
    "version": "4.5.1"
  },
  {
    "range": "<= 0.0.1",
    "version": "4.5.1"
  },
  {
    "range": "<4.2.2",
    "version": "4.5.1"
  },
  {
    "range": "<=2.2.0",
    "version": "4.5.1"
  },
  {
    "range": ">=1.1.0 <=1.1.1",
    "version": "4.5.1"
  },
  {
    "range": "<1.4.5",
    "version": "4.5.1"
  },
  {
    "range": "<1.1.1",
    "version": "4.5.1"
  },
  {
    "range": ">=1.7.1 <=1.8.3",
    "version": "4.5.1"
  },
  {
    "range": "<1.12.0||>1.12.2 <3.0.0-beta1",
    "version": "4.5.1"
  },
  {
    "range": "<=2.2.4",
    "version": "4.5.1"
  },
  {
    "range": "< 0.5.2",
    "version": "4.5.1"
  },
  {
    "range": ">=12.0.0 <=12.0.7",
    "version": "4.5.1"
  },
  {
    "range": "<2.0.7",
    "version": "4.5.1"
  },
  {
    "range": "<1.0.0",
    "version": "4.5.1"
  },
  {
    "range": "<  2.0.5",
    "version": "4.5.1"
  },
  {
    "range": "<1.1.0",
    "version": "4.5.1"
  },
  {
    "range": "<=1.0.3",
    "version": "4.5.1"
  },
  {
    "range": "<1.6.3",
    "version": "4.5.1"
  },
  {
    "range": "<1.2.30",
    "version": "4.5.1"
  },
  {
    "range": "<1.5.9",
    "version": "4.5.1"
  },
  {
    "range": "<1.6.5",
    "version": "4.5.1"
  },
  {
    "range": "<1.6.9",
    "version": "4.5.1"
  },
  {
    "range": ">=0.0.0alpha",
    "version": "4.5.1"
  },
  {
    "range": "<=3.0.5",
    "version": "4.5.1"
  },
  {
    "range": "<=1.6.2",
    "version": "4.5.1"
  },
  {
    "range": "<=1.7.1",
    "version": "4.5.1"
  },
  {
    "range": "<1.4.1",
    "version": "4.5.1"
  },
  {
    "range": "<3.7.0",
    "version": "4.5.1"
  },
  {
    "range": ">= 0.2.0 <= 0.9.6",
    "version": "4.5.1"
  },
  {
    "range": "<0.3.16",
    "version": "4.5.1"
  },
  {
    "range": "<=1.1.1",
    "version": "4.5.1"
  },
  {
    "range": ">=3.0.0a <=3.0.1 || <= 2.4.2",
    "version": "4.5.1"
  },
  {
    "range": "<1.11.4",
    "version": "4.5.1"
  },
  {
    "range": "<=1.2.2",
    "version": "4.5.1"
  },
  {
    "range": "<=1.4.2",
    "version": "4.5.1"
  },
  {
    "range": "<3.2.1",
    "version": "4.5.1"
  },
  {
    "range": ">=0.10.0 <=0.10.8",
    "version": "4.5.1"
  },
  {
    "range": "<=1.1.4",
    "version": "4.5.1"
  },
  {
    "range": "<0.4.7",
    "version": "4.5.1"
  },
  {
    "range": "<=0.9.11",
    "version": "4.5.1"
  },
  {
    "range": "<1.10.100",
    "version": "4.5.1"
  },
  {
    "range": "<=2.4.2",
    "version": "4.5.1"
  },
  {
    "range": "<1.8.10",
    "version": "4.5.1"
  },
  {
    "range": ">=2.0.0-alpha.0 <=3.4.3",
    "version": "4.5.1"
  },
  {
    "range": "<=1.10.2",
    "version": "4.5.1"
  },
  {
    "range": "<0.6.5",
    "version": "4.5.1"
  },
  {
    "range": "<0.2.5",
    "version": "4.5.1"
  },
  {
    "range": "<=1.2.1",
    "version": "4.5.1"
  },
  {
    "range": "<1.4.4",
    "version": "4.5.1"
  },
  {
    "range": "<= 1.0.2 || < 2.3.10",
    "version": "4.5.1"
  },
  {
    "range": "<=1.1.6",
    "version": "4.5.1"
  },
  {
    "range": "< 2.11.2 || >= 3.0.0 < 3.6.4 ||  >= 4.0.0 < 4.5.7 || >= 5.0.0 < 5.2.1 || >= 6.0.0 < 6.0.5 || >= 6.1.0 < 6.1.6 || >= 6.2.0 < 6.2.5 || >= 6.3.0 < 6.3.3 || >= 6.4.0 < 6.4.2 || >= 7.0.0 < 7.0.2 || >= 7.1.0 < 7.1.2",
    "version": "4.5.1"
  },
  {
    "range": "<0.5.5",
    "version": "4.5.1"
  },
  {
    "range": "<=1.2.4",
    "version": "4.5.1"
  },
  {
    "range": "<=2.12.3",
    "version": "4.5.1"
  },
  {
    "range": "<4.3.2",
    "version": "4.5.1"
  },
  {
    "range": "<0.5.0",
    "version": "4.5.1"
  },
  {
    "range": "<0.3.1",
    "version": "4.5.1"
  },
  {
    "range": ">= 5.2.1 <= 6.0.0 || >=6.0.0 <= 6.0.2",
    "version": "4.5.1"
  },
  {
    "range": ">=2.0.1 <3.0.2",
    "version": "4.5.1"
  },
  {
    "range": "<=3.0.1",
    "version": "4.5.1"
  },
  {
    "range": "5.1.1",
    "version": "4.5.1"
  },
  {
    "range": ">=0.0.2",
    "version": "4.5.1"
  },
  {
    "range": "<0.9.14",
    "version": "4.5.1"
  },
  {
    "range": "<=0.9.6",
    "version": "4.5.1"
  },
  {
    "range": "<=0.10.0",
    "version": "4.5.1"
  },
  {
    "range": "<2.3.22",
    "version": "4.5.1"
  },
  {
    "range": ">=0.0.0 <1.0.12",
    "version": "4.5.1"
  },
  {
    "range": "<3.12.0",
    "version": "4.5.1"
  },
  {
    "range": "<=1.0.5",
    "version": "4.5.1"
  },
  {
    "range": "< 0.1.2",
    "version": "4.5.1"
  },
  {
    "range": "<2.3.2",
    "version": "4.5.1"
  },
  {
    "range": "<4.0.0",
    "version": "4.5.1"
  },
  {
    "range": "<= 0.6.0",
    "version": "4.5.1"
  },
  {
    "range": "<2.4.2",
    "version": "4.5.1"
  },
  {
    "range": "<1.6.1",
    "version": "4.5.1"
  },
  {
    "range": "< 2.0.0",
    "version": "4.5.1"
  },
  {
    "range": "<= 3.16.0",
    "version": "4.5.1"
  },
  {
    "range": "<= 1.7.0-alpha2",
    "version": "4.5.1"
  },
  {
    "range": "<3.23.5",
    "version": "4.5.1"
  },
  {
    "range": "<= 2.1.3",
    "version": "4.5.1"
  },
  {
    "range": "<=3.19.3",
    "version": "4.5.1"
  },
  {
    "range": "<=2.0.0-rc7",
    "version": "4.5.1"
  },
  {
    "range": "<=1.6.0",
    "version": "4.5.1"
  },
  {
    "range": "<=2.0.0-alpha7",
    "version": "4.5.1"
  },
  {
    "range": "<1.10.2",
    "version": "4.5.1"
  },
  {
    "range": "<2.9.4",
    "version": "4.5.1"
  },
  {
    "range": "<1.6.5||>=1.7.0 <1.7.2",
    "version": "4.5.1"
  },
  {
    "range": "<2.2.0",
    "version": "4.5.1"
  },
  {
    "range": "<=2.1.1",
    "version": "4.5.1"
  },
  {
    "range": "<=1.3.0",
    "version": "4.5.1"
  },
  {
    "range": ">=0.2.0 <=0.4.2",
    "version": "4.5.1"
  },
  {
    "range": "<=1.20.0",
    "version": "4.5.1"
  },
  {
    "range": "<=v0.9.7",
    "version": "4.5.1"
  },
  {
    "range": "<0.26.0",
    "version": "4.5.1"
  },
  {
    "range": "<1.4.1 || >= 2.0.0 < 2.0.3",
    "version": "4.5.1"
  },
  {
    "range": ">=2.2.6 <2.47.0 || >2.51.0 <=2.67.0",
    "version": "4.5.1"
  },
  {
    "range": "0.5.0",
    "version": "4.5.1"
  },
  {
    "range": "<1.2.4",
    "version": "4.5.1"
  },
  {
    "range": "<1.10.4||>=1.11.0 <1.16.0",
    "version": "4.5.1"
  },
  {
    "range": ">=1.0.0 <1.4.6||>=2.0.0 <2.0.1",
    "version": "4.5.1"
  },
  {
    "range": "<0.4.11",
    "version": "4.5.1"
  },
  {
    "range": "<3.17.0",
    "version": "4.5.1"
  },
  {
    "range": "<1.5.0",
    "version": "4.5.1"
  },
  {
    "range": "<13.0.8",
    "version": "4.5.1"
  },
  {
    "range": "< 3.1.3  || >= 4.0.0 <4.1.1",
    "version": "4.5.1"
  },
  {
    "range": ">=0.0.1",
    "version": "4.5.1"
  },
  {
    "range": "<2.26.1",
    "version": "4.5.1"
  },
  {
    "range": "<=0.1.1",
    "version": "4.5.1"
  },
  {
    "range": "<0.2.4",
    "version": "4.5.1"
  },
  {
    "range": "<=0.3.13",
    "version": "4.5.1"
  },
  {
    "range": ">=2.0.0 <=2.14.0",
    "version": "4.5.1"
  },
  {
    "range": "<3.2.2",
    "version": "4.5.1"
  },
  {
    "range": "<2.6.0",
    "version": "4.5.1"
  },
  {
    "range": "<2.4.24",
    "version": "4.5.1"
  },
  {
    "range": "<=0.3.8",
    "version": "4.5.1"
  },
  {
    "range": ">=0.2.0",
    "version": "4.5.1"
  },
  {
    "range": "<=6.4.8",
    "version": "4.5.1"
  },
  {
    "range": "<3.15.7",
    "version": "4.5.1"
  },
  {
    "range": "<=2.3.5",
    "version": "4.5.1"
  },
  {
    "range": "<3.5.0",
    "version": "4.5.1"
  },
  {
    "range": ">=2.0.0 <=4.0.4",
    "version": "4.5.1"
  },
  {
    "range": "<=2.8.0",
    "version": "4.5.1"
  },
  {
    "range": "<1.6.16 || >=1.7.0-alpha <1.7.11 || >= 1.8.0-alpha <1.8.2-beta.4",
    "version": "4.5.1"
  },
  {
    "range": "< 1.6.14 || >= 1.7.0 < 1.7.8",
    "version": "4.5.1"
  },
  {
    "range": "<= 1.7.12 || >=1.8.0 <= 1.8.3 || >=2.0.0-beta.1 <= 2.0.0-beta.3",
    "version": "4.5.1"
  },
  {
    "range": "<0.4.4",
    "version": "4.5.1"
  },
  {
    "range": "<0.11.1",
    "version": "4.5.1"
  },
  {
    "range": "<0.8.4",
    "version": "4.5.1"
  },
  {
    "range": "<1.0.1",
    "version": "4.5.1"
  },
  {
    "range": "<=3.2.0",
    "version": "4.5.1"
  },
  {
    "range": "<1.6.5 || < 2.1.7 >=2.0.0-beta0",
    "version": "4.5.1"
  },
  {
    "range": "<1.6.6 || < 2.2.4 >=2.0.0-beta0",
    "version": "4.5.1"
  },
  {
    "range": "<4.2.1 || >= 5.0.0alpha0 < 5.0.3",
    "version": "4.5.1"
  },
  {
    "range": "<=0.6.6",
    "version": "4.5.1"
  },
  {
    "range": "<= 1.12.11",
    "version": "4.5.1"
  },
  {
    "range": ">=0.9.7 <=2.2.2",
    "version": "4.5.1"
  },
  {
    "range": "<2.3.3",
    "version": "4.5.1"
  },
  {
    "range": "<=0.0.5",
    "version": "4.5.1"
  },
  {
    "range": "<=0.19.0-beta.1",
    "version": "4.5.1"
  },
  {
    "range": "<=6.0.4",
    "version": "4.5.1"
  },
  {
    "range": "<1.2.8000",
    "version": "4.5.1"
  },
  {
    "range": ">=3.0.0alpha <= 3.8.2 || <= 2.15.0",
    "version": "4.5.1"
  },
  {
    "range": ">=1.4.0-alpha <2.0.0",
    "version": "4.5.1"
  },
  {
    "range": "<=2.4.3",
    "version": "4.5.1"
  },
  {
    "range": "<= 0.3.3",
    "version": "4.5.1"
  },
  {
    "range": "<0.0.19",
    "version": "4.5.1"
  },
  {
    "range": "<1.5.2",
    "version": "4.5.1"
  },
  {
    "range": "<3.5.1 || >=4.0.0 && <4.1.3 || >=5.0.0 && <5.6.1 || >=6.0.0 && <6.1.2",
    "version": "4.5.1"
  },
  {
    "range": "<3.4.6 || >=4.0.0 <4.0.5",
    "version": "4.5.1"
  },
  {
    "range": "<0.12.7",
    "version": "4.5.1"
  },
  {
    "range": "<=1.1.0",
    "version": "4.5.1"
  },
  {
    "range": "<= 1.0.0",
    "version": "4.5.1"
  },
  {
    "range": "<3.3.1",
    "version": "4.5.1"
  },
  {
    "range": "<0.1.4",
    "version": "4.5.1"
  },
  {
    "range": "<2.25.1",
    "version": "4.5.1"
  },
  {
    "range": "<2.2.5",
    "version": "4.5.1"
  },
  {
    "range": "<=1.11.4",
    "version": "4.5.1"
  },
  {
    "range": "<1.12.4||>=2.0.0 <2.0.2",
    "version": "4.5.1"
  },
  {
    "range": "<2.6.9 || >= 3.0.0 <3.1.0",
    "version": "4.5.1"
  },
  {
    "range": "<=0.37.0",
    "version": "4.5.1"
  }
]
