{
  "bomFormat": "CycloneDX",
  "specVersion": "1.4",
  "serialNumber": "urn:uuid:a1a31ea9-3ad2-4e90-ad23-e8be8e9f4c5d",
  "version": 1,
  "metadata": {
    "timestamp": "2023-04-19T23:05:38Z",
    "tools": [
      {
        "vendor": "GitLab",
        "name": "Gemnasium",
        "version": "3.15.1"
      }
    ],
    "authors": [
      {
        "name": "GitLab",
        "email": "support@gitlab.com"
      }
    ],
    "properties": [
      {
        "name": "gitlab:dependency_scanning:input_file",
        "value": "composer.lock"
      },
      {
        "name": "gitlab:dependency_scanning:input_file:path",
        "value": "composer.lock"
      },
      {
        "name": "gitlab:dependency_scanning:package_manager",
        "value": "composer"
      },
      {
        "name": "gitlab:dependency_scanning:package_manager:name",
        "value": "composer"
      },
      {
        "name": "gitlab:meta:schema_version",
        "value": "1"
      }
    ]
  },
  "components": [
    {
      "name": "classpreloader/classpreloader",
      "version": "3.2.0",
      "purl": "pkg:composer/classpreloader/classpreloader@3.2.0",
      "type": "library",
      "bom-ref": "pkg:composer/classpreloader/classpreloader@3.2.0"
    },
    {
      "name": "dnoegel/php-xdg-base-dir",
      "version": "0.1",
      "purl": "pkg:composer/dnoegel/php-xdg-base-dir@0.1",
      "type": "library",
      "bom-ref": "pkg:composer/dnoegel/php-xdg-base-dir@0.1"
    },
    {
      "name": "doctrine/inflector",
      "version": "v1.1.0",
      "purl": "pkg:composer/doctrine/inflector@v1.1.0",
      "type": "library",
      "bom-ref": "pkg:composer/doctrine/inflector@v1.1.0"
    },
    {
      "name": "doctrine/instantiator",
      "version": "1.0.5",
      "purl": "pkg:composer/doctrine/instantiator@1.0.5",
      "type": "library",
      "bom-ref": "pkg:composer/doctrine/instantiator@1.0.5"
    },
    {
      "name": "jakub-onderka/php-console-color",
      "version": "0.1",
      "purl": "pkg:composer/jakub-onderka/php-console-color@0.1",
      "type": "library",
      "bom-ref": "pkg:composer/jakub-onderka/php-console-color@0.1"
    },
    {
      "name": "jakub-onderka/php-console-highlighter",
      "version": "v0.3.2",
      "purl": "pkg:composer/jakub-onderka/php-console-highlighter@v0.3.2",
      "type": "library",
      "bom-ref": "pkg:composer/jakub-onderka/php-console-highlighter@v0.3.2"
    },
    {
      "name": "jeremeamia/SuperClosure",
      "version": "2.3.0",
      "purl": "pkg:composer/jeremeamia/SuperClosure@2.3.0",
      "type": "library",
      "bom-ref": "pkg:composer/jeremeamia/SuperClosure@2.3.0"
    },
    {
      "name": "laravel/framework",
      "version": "v5.3.31",
      "purl": "pkg:composer/laravel/framework@v5.3.31",
      "type": "library",
      "bom-ref": "pkg:composer/laravel/framework@v5.3.31"
    },
    {
      "name": "league/flysystem",
      "version": "1.0.42",
      "purl": "pkg:composer/league/flysystem@1.0.42",
      "type": "library",
      "bom-ref": "pkg:composer/league/flysystem@1.0.42"
    },
    {
      "name": "monolog/monolog",
      "version": "1.23.0",
      "purl": "pkg:composer/monolog/monolog@1.23.0",
      "type": "library",
      "bom-ref": "pkg:composer/monolog/monolog@1.23.0"
    },
    {
      "name": "mtdowling/cron-expression",
      "version": "v1.2.1",
      "purl": "pkg:composer/mtdowling/cron-expression@v1.2.1",
      "type": "library",
      "bom-ref": "pkg:composer/mtdowling/cron-expression@v1.2.1"
    },
    {
      "name": "myclabs/deep-copy",
      "version": "1.7.0",
      "purl": "pkg:composer/myclabs/deep-copy@1.7.0",
      "type": "library",
      "bom-ref": "pkg:composer/myclabs/deep-copy@1.7.0"
    },
    {
      "name": "nesbot/carbon",
      "version": "1.22.1",
      "purl": "pkg:composer/nesbot/carbon@1.22.1",
      "type": "library",
      "bom-ref": "pkg:composer/nesbot/carbon@1.22.1"
    },
    {
      "name": "nikic/php-parser",
      "version": "v3.1.4",
      "purl": "pkg:composer/nikic/php-parser@v3.1.4",
      "type": "library",
      "bom-ref": "pkg:composer/nikic/php-parser@v3.1.4"
    },
    {
      "name": "paragonie/random_compat",
      "version": "v2.0.11",
      "purl": "pkg:composer/paragonie/random_compat@v2.0.11",
      "type": "library",
      "bom-ref": "pkg:composer/paragonie/random_compat@v2.0.11"
    },
    {
      "name": "phpdocumentor/reflection-common",
      "version": "1.0.1",
      "purl": "pkg:composer/phpdocumentor/reflection-common@1.0.1",
      "type": "library",
      "bom-ref": "pkg:composer/phpdocumentor/reflection-common@1.0.1"
    },
    {
      "name": "phpdocumentor/reflection-docblock",
      "version": "3.3.2",
      "purl": "pkg:composer/phpdocumentor/reflection-docblock@3.3.2",
      "type": "library",
      "bom-ref": "pkg:composer/phpdocumentor/reflection-docblock@3.3.2"
    },
    {
      "name": "phpdocumentor/type-resolver",
      "version": "0.4.0",
      "purl": "pkg:composer/phpdocumentor/type-resolver@0.4.0",
      "type": "library",
      "bom-ref": "pkg:composer/phpdocumentor/type-resolver@0.4.0"
    },
    {
      "name": "phpspec/prophecy",
      "version": "1.7.4",
      "purl": "pkg:composer/phpspec/prophecy@1.7.4",
      "type": "library",
      "bom-ref": "pkg:composer/phpspec/prophecy@1.7.4"
    },
    {
      "name": "phpunit/php-code-coverage",
      "version": "4.0.8",
      "purl": "pkg:composer/phpunit/php-code-coverage@4.0.8",
      "type": "library",
      "bom-ref": "pkg:composer/phpunit/php-code-coverage@4.0.8"
    },
    {
      "name": "phpunit/php-file-iterator",
      "version": "1.4.5",
      "purl": "pkg:composer/phpunit/php-file-iterator@1.4.5",
      "type": "library",
      "bom-ref": "pkg:composer/phpunit/php-file-iterator@1.4.5"
    },
    {
      "name": "phpunit/php-text-template",
      "version": "1.2.1",
      "purl": "pkg:composer/phpunit/php-text-template@1.2.1",
      "type": "library",
      "bom-ref": "pkg:composer/phpunit/php-text-template@1.2.1"
    },
    {
      "name": "phpunit/php-timer",
      "version": "1.0.9",
      "purl": "pkg:composer/phpunit/php-timer@1.0.9",
      "type": "library",
      "bom-ref": "pkg:composer/phpunit/php-timer@1.0.9"
    },
    {
      "name": "phpunit/php-token-stream",
      "version": "1.4.12",
      "purl": "pkg:composer/phpunit/php-token-stream@1.4.12",
      "type": "library",
      "bom-ref": "pkg:composer/phpunit/php-token-stream@1.4.12"
    },
    {
      "name": "phpunit/phpunit",
      "version": "5.7.27",
      "purl": "pkg:composer/phpunit/phpunit@5.7.27",
      "type": "library",
      "bom-ref": "pkg:composer/phpunit/phpunit@5.7.27"
    },
    {
      "name": "phpunit/phpunit-mock-objects",
      "version": "3.4.4",
      "purl": "pkg:composer/phpunit/phpunit-mock-objects@3.4.4",
      "type": "library",
      "bom-ref": "pkg:composer/phpunit/phpunit-mock-objects@3.4.4"
    },
    {
      "name": "psr/log",
      "version": "1.0.2",
      "purl": "pkg:composer/psr/log@1.0.2",
      "type": "library",
      "bom-ref": "pkg:composer/psr/log@1.0.2"
    },
    {
      "name": "psy/psysh",
      "version": "v0.8.17",
      "purl": "pkg:composer/psy/psysh@v0.8.17",
      "type": "library",
      "bom-ref": "pkg:composer/psy/psysh@v0.8.17"
    },
    {
      "name": "ramsey/uuid",
      "version": "3.7.3",
      "purl": "pkg:composer/ramsey/uuid@3.7.3",
      "type": "library",
      "bom-ref": "pkg:composer/ramsey/uuid@3.7.3"
    },
    {
      "name": "sebastian/code-unit-reverse-lookup",
      "version": "1.0.1",
      "purl": "pkg:composer/sebastian/code-unit-reverse-lookup@1.0.1",
      "type": "library",
      "bom-ref": "pkg:composer/sebastian/code-unit-reverse-lookup@1.0.1"
    },
    {
      "name": "sebastian/comparator",
      "version": "1.2.4",
      "purl": "pkg:composer/sebastian/comparator@1.2.4",
      "type": "library",
      "bom-ref": "pkg:composer/sebastian/comparator@1.2.4"
    },
    {
      "name": "sebastian/diff",
      "version": "1.4.3",
      "purl": "pkg:composer/sebastian/diff@1.4.3",
      "type": "library",
      "bom-ref": "pkg:composer/sebastian/diff@1.4.3"
    },
    {
      "name": "sebastian/environment",
      "version": "2.0.0",
      "purl": "pkg:composer/sebastian/environment@2.0.0",
      "type": "library",
      "bom-ref": "pkg:composer/sebastian/environment@2.0.0"
    },
    {
      "name": "sebastian/exporter",
      "version": "2.0.0",
      "purl": "pkg:composer/sebastian/exporter@2.0.0",
      "type": "library",
      "bom-ref": "pkg:composer/sebastian/exporter@2.0.0"
    },
    {
      "name": "sebastian/global-state",
      "version": "1.1.1",
      "purl": "pkg:composer/sebastian/global-state@1.1.1",
      "type": "library",
      "bom-ref": "pkg:composer/sebastian/global-state@1.1.1"
    },
    {
      "name": "sebastian/object-enumerator",
      "version": "2.0.1",
      "purl": "pkg:composer/sebastian/object-enumerator@2.0.1",
      "type": "library",
      "bom-ref": "pkg:composer/sebastian/object-enumerator@2.0.1"
    },
    {
      "name": "sebastian/recursion-context",
      "version": "2.0.0",
      "purl": "pkg:composer/sebastian/recursion-context@2.0.0",
      "type": "library",
      "bom-ref": "pkg:composer/sebastian/recursion-context@2.0.0"
    },
    {
      "name": "sebastian/resource-operations",
      "version": "1.0.0",
      "purl": "pkg:composer/sebastian/resource-operations@1.0.0",
      "type": "library",
      "bom-ref": "pkg:composer/sebastian/resource-operations@1.0.0"
    },
    {
      "name": "sebastian/version",
      "version": "2.0.1",
      "purl": "pkg:composer/sebastian/version@2.0.1",
      "type": "library",
      "bom-ref": "pkg:composer/sebastian/version@2.0.1"
    },
    {
      "name": "swiftmailer/swiftmailer",
      "version": "v5.4.9",
      "purl": "pkg:composer/swiftmailer/swiftmailer@v5.4.9",
      "type": "library",
      "bom-ref": "pkg:composer/swiftmailer/swiftmailer@v5.4.9"
    },
    {
      "name": "symfony/console",
      "version": "v3.1.10",
      "purl": "pkg:composer/symfony/console@v3.1.10",
      "type": "library",
      "bom-ref": "pkg:composer/symfony/console@v3.1.10"
    },
    {
      "name": "symfony/debug",
      "version": "v3.1.10",
      "purl": "pkg:composer/symfony/debug@v3.1.10",
      "type": "library",
      "bom-ref": "pkg:composer/symfony/debug@v3.1.10"
    },
    {
      "name": "symfony/event-dispatcher",
      "version": "v3.4.4",
      "purl": "pkg:composer/symfony/event-dispatcher@v3.4.4",
      "type": "library",
      "bom-ref": "pkg:composer/symfony/event-dispatcher@v3.4.4"
    },
    {
      "name": "symfony/finder",
      "version": "v3.1.10",
      "purl": "pkg:composer/symfony/finder@v3.1.10",
      "type": "library",
      "bom-ref": "pkg:composer/symfony/finder@v3.1.10"
    },
    {
      "name": "symfony/http-foundation",
      "version": "v3.1.10",
      "purl": "pkg:composer/symfony/http-foundation@v3.1.10",
      "type": "library",
      "bom-ref": "pkg:composer/symfony/http-foundation@v3.1.10"
    },
    {
      "name": "symfony/http-kernel",
      "version": "v3.1.10",
      "purl": "pkg:composer/symfony/http-kernel@v3.1.10",
      "type": "library",
      "bom-ref": "pkg:composer/symfony/http-kernel@v3.1.10"
    },
    {
      "name": "symfony/polyfill-mbstring",
      "version": "v1.7.0",
      "purl": "pkg:composer/symfony/polyfill-mbstring@v1.7.0",
      "type": "library",
      "bom-ref": "pkg:composer/symfony/polyfill-mbstring@v1.7.0"
    },
    {
      "name": "symfony/polyfill-php56",
      "version": "v1.7.0",
      "purl": "pkg:composer/symfony/polyfill-php56@v1.7.0",
      "type": "library",
      "bom-ref": "pkg:composer/symfony/polyfill-php56@v1.7.0"
    },
    {
      "name": "symfony/polyfill-util",
      "version": "v1.7.0",
      "purl": "pkg:composer/symfony/polyfill-util@v1.7.0",
      "type": "library",
      "bom-ref": "pkg:composer/symfony/polyfill-util@v1.7.0"
    },
    {
      "name": "symfony/process",
      "version": "v3.1.10",
      "purl": "pkg:composer/symfony/process@v3.1.10",
      "type": "library",
      "bom-ref": "pkg:composer/symfony/process@v3.1.10"
    },
    {
      "name": "symfony/routing",
      "version": "v3.1.10",
      "purl": "pkg:composer/symfony/routing@v3.1.10",
      "type": "library",
      "bom-ref": "pkg:composer/symfony/routing@v3.1.10"
    },
    {
      "name": "symfony/translation",
      "version": "v3.1.10",
      "purl": "pkg:composer/symfony/translation@v3.1.10",
      "type": "library",
      "bom-ref": "pkg:composer/symfony/translation@v3.1.10"
    },
    {
      "name": "symfony/var-dumper",
      "version": "v3.1.10",
      "purl": "pkg:composer/symfony/var-dumper@v3.1.10",
      "type": "library",
      "bom-ref": "pkg:composer/symfony/var-dumper@v3.1.10"
    },
    {
      "name": "symfony/yaml",
      "version": "v3.3.16",
      "purl": "pkg:composer/symfony/yaml@v3.3.16",
      "type": "library",
      "bom-ref": "pkg:composer/symfony/yaml@v3.3.16"
    },
    {
      "name": "vlucas/phpdotenv",
      "version": "v2.4.0",
      "purl": "pkg:composer/vlucas/phpdotenv@v2.4.0",
      "type": "library",
      "bom-ref": "pkg:composer/vlucas/phpdotenv@v2.4.0"
    },
    {
      "name": "webmozart/assert",
      "version": "1.3.0",
      "purl": "pkg:composer/webmozart/assert@1.3.0",
      "type": "library",
      "bom-ref": "pkg:composer/webmozart/assert@1.3.0"
    }
  ]
}
