{
  "bomFormat": "CycloneDX",
  "specVersion": "1.4",
  "serialNumber": "urn:uuid:e81b0014-de7d-4861-b419-ac3d94dec74c",
  "version": 1,
  "metadata": {
    "timestamp": "2023-05-18T03:34:35Z",
    "tools": [
      {
        "vendor": "GitLab",
        "name": "Gemnasium",
        "version": "3.15.1"
      }
    ],
    "authors": [
      {
        "name": "GitLab",
        "email": "support@gitlab.com"
      }
    ],
    "properties": [
      {
        "name": "gitlab:dependency_scanning:input_file",
        "value": "build.gradle"
      },
      {
        "name": "gitlab:dependency_scanning:input_file:path",
        "value": "build.gradle"
      },
      {
        "name": "gitlab:dependency_scanning:package_manager",
        "value": "gradle"
      },
      {
        "name": "gitlab:dependency_scanning:package_manager:name",
        "value": "gradle"
      },
      {
        "name": "gitlab:meta:schema_version",
        "value": "1"
      }
    ]
  },
  "components": [
    {
      "name": "antlr/antlr",
      "version": "2.7.7",
      "purl": "pkg:maven/antlr/antlr@2.7.7",
      "type": "library",
      "bom-ref": "pkg:maven/antlr/antlr@2.7.7"
    },
    {
      "name": "com.fasterxml.jackson.core/jackson-annotations",
      "version": "2.9.0",
      "purl": "pkg:maven/com.fasterxml.jackson.core/jackson-annotations@2.9.0",
      "type": "library",
      "bom-ref": "pkg:maven/com.fasterxml.jackson.core/jackson-annotations@2.9.0"
    },
    {
      "name": "com.fasterxml.jackson.core/jackson-core",
      "version": "2.9.2",
      "purl": "pkg:maven/com.fasterxml.jackson.core/jackson-core@2.9.2",
      "type": "library",
      "bom-ref": "pkg:maven/com.fasterxml.jackson.core/jackson-core@2.9.2"
    },
    {
      "name": "com.fasterxml.jackson.core/jackson-databind",
      "version": "2.9.2",
      "purl": "pkg:maven/com.fasterxml.jackson.core/jackson-databind@2.9.2",
      "type": "library",
      "bom-ref": "pkg:maven/com.fasterxml.jackson.core/jackson-databind@2.9.2"
    },
    {
      "name": "com.github.stephenc.findbugs/findbugs-annotations",
      "version": "1.3.9-1",
      "purl": "pkg:maven/com.github.stephenc.findbugs/findbugs-annotations@1.3.9-1",
      "type": "library",
      "bom-ref": "pkg:maven/com.github.stephenc.findbugs/findbugs-annotations@1.3.9-1"
    },
    {
      "name": "commons-beanutils/commons-beanutils",
      "version": "1.8.3",
      "purl": "pkg:maven/commons-beanutils/commons-beanutils@1.8.3",
      "type": "library",
      "bom-ref": "pkg:maven/commons-beanutils/commons-beanutils@1.8.3"
    },
    {
      "name": "commons-io/commons-io",
      "version": "2.3",
      "purl": "pkg:maven/commons-io/commons-io@2.3",
      "type": "library",
      "bom-ref": "pkg:maven/commons-io/commons-io@2.3"
    },
    {
      "name": "commons-lang/commons-lang",
      "version": "2.5",
      "purl": "pkg:maven/commons-lang/commons-lang@2.5",
      "type": "library",
      "bom-ref": "pkg:maven/commons-lang/commons-lang@2.5"
    },
    {
      "name": "io.netty/netty",
      "version": "3.9.1.Final",
      "purl": "pkg:maven/io.netty/netty@3.9.1.Final",
      "type": "library",
      "bom-ref": "pkg:maven/io.netty/netty@3.9.1.Final"
    },
    {
      "name": "it.unimi.dsi/fastutil",
      "version": "7.0.2",
      "purl": "pkg:maven/it.unimi.dsi/fastutil@7.0.2",
      "type": "library",
      "bom-ref": "pkg:maven/it.unimi.dsi/fastutil@7.0.2"
    },
    {
      "name": "javax.resource/javax.resource-api",
      "version": "1.7",
      "purl": "pkg:maven/javax.resource/javax.resource-api@1.7",
      "type": "library",
      "bom-ref": "pkg:maven/javax.resource/javax.resource-api@1.7"
    },
    {
      "name": "javax.transaction/javax.transaction-api",
      "version": "1.2",
      "purl": "pkg:maven/javax.transaction/javax.transaction-api@1.2",
      "type": "library",
      "bom-ref": "pkg:maven/javax.transaction/javax.transaction-api@1.2"
    },
    {
      "name": "net.java.dev.jna/jna",
      "version": "4.0.0",
      "purl": "pkg:maven/net.java.dev.jna/jna@4.0.0",
      "type": "library",
      "bom-ref": "pkg:maven/net.java.dev.jna/jna@4.0.0"
    },
    {
      "name": "net.sf.jopt-simple/jopt-simple",
      "version": "5.0.1",
      "purl": "pkg:maven/net.sf.jopt-simple/jopt-simple@5.0.1",
      "type": "library",
      "bom-ref": "pkg:maven/net.sf.jopt-simple/jopt-simple@5.0.1"
    },
    {
      "name": "org.apache.commons/commons-lang3",
      "version": "3.4",
      "purl": "pkg:maven/org.apache.commons/commons-lang3@3.4",
      "type": "library",
      "bom-ref": "pkg:maven/org.apache.commons/commons-lang3@3.4"
    },
    {
      "name": "org.apache.geode/geode-common",
      "version": "1.1.1",
      "purl": "pkg:maven/org.apache.geode/geode-common@1.1.1",
      "type": "library",
      "bom-ref": "pkg:maven/org.apache.geode/geode-common@1.1.1"
    },
    {
      "name": "org.apache.geode/geode-core",
      "version": "1.1.1",
      "purl": "pkg:maven/org.apache.geode/geode-core@1.1.1",
      "type": "library",
      "bom-ref": "pkg:maven/org.apache.geode/geode-core@1.1.1"
    },
    {
      "name": "org.apache.geode/geode-json",
      "version": "1.1.1",
      "purl": "pkg:maven/org.apache.geode/geode-json@1.1.1",
      "type": "library",
      "bom-ref": "pkg:maven/org.apache.geode/geode-json@1.1.1"
    },
    {
      "name": "org.apache.logging.log4j/log4j-api",
      "version": "2.6.1",
      "purl": "pkg:maven/org.apache.logging.log4j/log4j-api@2.6.1",
      "type": "library",
      "bom-ref": "pkg:maven/org.apache.logging.log4j/log4j-api@2.6.1"
    },
    {
      "name": "org.apache.logging.log4j/log4j-core",
      "version": "2.6.1",
      "purl": "pkg:maven/org.apache.logging.log4j/log4j-core@2.6.1",
      "type": "library",
      "bom-ref": "pkg:maven/org.apache.logging.log4j/log4j-core@2.6.1"
    },
    {
      "name": "org.apache.maven/maven-artifact",
      "version": "3.3.9",
      "purl": "pkg:maven/org.apache.maven/maven-artifact@3.3.9",
      "type": "library",
      "bom-ref": "pkg:maven/org.apache.maven/maven-artifact@3.3.9"
    },
    {
      "name": "org.apache.shiro/shiro-core",
      "version": "1.3.1",
      "purl": "pkg:maven/org.apache.shiro/shiro-core@1.3.1",
      "type": "library",
      "bom-ref": "pkg:maven/org.apache.shiro/shiro-core@1.3.1"
    },
    {
      "name": "org.codehaus.plexus/plexus-utils",
      "version": "3.0.22",
      "purl": "pkg:maven/org.codehaus.plexus/plexus-utils@3.0.22",
      "type": "library",
      "bom-ref": "pkg:maven/org.codehaus.plexus/plexus-utils@3.0.22"
    },
    {
      "name": "org.jgroups/jgroups",
      "version": "3.6.10.Final",
      "purl": "pkg:maven/org.jgroups/jgroups@3.6.10.Final",
      "type": "library",
      "bom-ref": "pkg:maven/org.jgroups/jgroups@3.6.10.Final"
    },
    {
      "name": "org.mozilla/rhino",
      "version": "1.7.10",
      "purl": "pkg:maven/org.mozilla/rhino@1.7.10",
      "type": "library",
      "bom-ref": "pkg:maven/org.mozilla/rhino@1.7.10"
    },
    {
      "name": "org.slf4j/slf4j-api",
      "version": "1.6.4",
      "purl": "pkg:maven/org.slf4j/slf4j-api@1.6.4",
      "type": "library",
      "bom-ref": "pkg:maven/org.slf4j/slf4j-api@1.6.4"
    }
  ]
}
